You must be plotting something
…
<img src="./yoda-mouth-open.jpg" width="600" style="display: block; margin: auto;" />

---

## Examine the full data set

* Get to know the data by running the code chunk that contains the name of the data:

```r
starwars
```

```
# A tibble: 87 x 14
   name  height  mass hair_color skin_color eye_color birth_year sex   gender
   <chr>  <int> <dbl> <chr>      <chr>      <chr>          <dbl> <chr> <chr> 
 1 Luke…    172    77 blond      fair       blue            19   male  mascu…
 2 C-3PO    167    75 <NA>       gold       yellow         112   none  mascu…
 3 R2-D2     96    32 <NA>       white, bl… red             33   none  mascu…
 4 Dart…    202   136 none       white      yellow          41.9 male  mascu…
 5 Leia…    150    49 brown      light      brown           19   fema… femin…
 6 Owen…    178   120 brown, gr… light      blue            52   male  mascu…
 7 Beru…    165    75 brown      light      blue            47   fema… femin…
 8 R5-D4     97    32 <NA>       white, red red             NA   none  mascu…
 9 Bigg…    183    84 black      light      brown           24   male  mascu…
10 Obi-…    182    77 auburn, w… fair       blue-gray       57   male  mascu…
# … with 77 more rows, and 5 more variables: homeworld <chr>, species <chr>,
#   films <list>, vehicles <list>, starships <list>
```
…
count: false
 
## Basic bar chart
.panel1-my_bar-auto[

```r
*starwars
```
]
 
.panel2-my_bar-auto[

```
# A tibble: 87 x 14
   name  height  mass hair_color skin_color eye_color birth_year sex   gender
   <chr>  <int> <dbl> <chr>      <chr>      <chr>          <dbl> <chr> <chr> 
 1 Luke…    172    77 blond      fair       blue            19   male  mascu…
 2 C-3PO    167    75 <NA>       gold       yellow         112   none  mascu…
 3 R2-D2     96    32 <NA>       white, bl… red             33   none  mascu…
 4 Dart…    202   136 none       white      yellow          41.9 male  mascu…
 5 Leia…    150    49 brown      light      brown           19   fema… femin…
 6 Owen…    178   120 brown, gr… light      blue            52   male  mascu…
 7 Beru…    165    75 brown      light      blue            47   fema… femin…
 8 R5-D4     97    32 <NA>       white, red red             NA   none  mascu…
 9 Bigg…    183    84 black      light      brown           24   male  mascu…
10 Obi-…    182    77 auburn, w… fair       blue-gray       57   male  mascu…
# … with 77 more rows, and 5 more variables: homeworld <chr>, species <chr>,
#   films <list>, vehicles <list>, starships <list>
```
…
count: false
 
## Fancy bar chart
.panel1-my_bar_fancy-auto[

```r
*starwars
```
]
 
.panel2-my_bar_fancy-auto[

```
# A tibble: 87 x 14
   name  height  mass hair_color skin_color eye_color birth_year sex   gender
   <chr>  <int> <dbl> <chr>      <chr>      <chr>          <dbl> <chr> <chr> 
 1 Luke…    172    77 blond      fair       blue            19   male  mascu…
 2 C-3PO    167    75 <NA>       gold       yellow         112   none  mascu…
 3 R2-D2     96    32 <NA>       white, bl… red             33   none  mascu…
 4 Dart…    202   136 none       white      yellow          41.9 male  mascu…
 5 Leia…    150    49 brown      light      brown           19   fema… femin…
 6 Owen…    178   120 brown, gr… light      blue            52   male  mascu…
 7 Beru…    165    75 brown      light      blue            47   fema… femin…
 8 R5-D4     97    32 <NA>       white, red red             NA   none  mascu…
 9 Bigg…    183    84 black      light      brown           24   male  mascu…
10 Obi-…    182    77 auburn, w… fair       blue-gray       57   male  mascu…
# … with 77 more rows, and 5 more variables: homeworld <chr>, species <chr>,
#   films <list>, vehicles <list>, starships <list>
```
…
## Fancy bar chart
.panel1-my_bar_fancy-auto[

```r
starwars %>%
* drop_na(gender)
```
]
 
.panel2-my_bar_fancy-auto[

```
# A tibble: 83 x 14
   name  height  mass hair_color skin_color eye_color birth_year sex   gender
   <chr>  <int> <dbl> <chr>      <chr>      <chr>          <dbl> <chr> <chr> 
 1 Luke…    172    77 blond      fair       blue            19   male  mascu…
 2 C-3PO    167    75 <NA>       gold       yellow         112   none  mascu…
 3 R2-D2     96    32 <NA>       white, bl… red             33   none  mascu…
 4 Dart…    202   136 none       white      yellow          41.9 male  mascu…
 5 Leia…    150    49 brown      light      brown           19   fema… femin…
 6 Owen…    178   120 brown, gr… light      blue            52   male  mascu…
 7 Beru…    165    75 brown      light      blue            47   fema… femin…
 8 R5-D4     97    32 <NA>       white, red red             NA   none  mascu…
 9 Bigg…    183    84 black      light      brown           24   male  mascu…
10 Obi-…    182    77 auburn, w… fair       blue-gray       57   male  mascu…
# … with 73 more rows, and 5 more variables: homeworld <chr>, species <chr>,
#   films <list>, vehicles <list>, starships <list>
```
…
count: false
 
## Figure 1 code
.panel1-my_bar_fancy_fig1-auto[

```r
*starwars
```
]
 
.panel2-my_bar_fancy_fig1-auto[

```
# A tibble: 87 x 14
   name  height  mass hair_color skin_color eye_color birth_year sex   gender
   <chr>  <int> <dbl> <chr>      <chr>      <chr>          <dbl> <chr> <chr> 
 1 Luke…    172    77 blond      fair       blue            19   male  mascu…
 2 C-3PO    167    75 <NA>       gold       yellow         112   none  mascu…
 3 R2-D2     96    32 <NA>       white, bl… red             33   none  mascu…
 4 Dart…    202   136 none       white      yellow          41.9 male  mascu…
 5 Leia…    150    49 brown      light      brown           19   fema… femin…
 6 Owen…    178   120 brown, gr… light      blue            52   male  mascu…
 7 Beru…    165    75 brown      light      blue            47   fema… femin…
 8 R5-D4     97    32 <NA>       white, red red             NA   none  mascu…
 9 Bigg…    183    84 black      light      brown           24   male  mascu…
10 Obi-…    182    77 auburn, w… fair       blue-gray       57   male  mascu…
# … with 77 more rows, and 5 more variables: homeworld <chr>, species <chr>,
#   films <list>, vehicles <list>, starships <list>
```
…
## Figure 1 code
.panel1-my_bar_fancy_fig1-auto[

```r
starwars %>%
* drop_na(sex)
```
]
 
.panel2-my_bar_fancy_fig1-auto[

```
# A tibble: 83 x 14
   name  height  mass hair_color skin_color eye_color birth_year sex   gender
   <chr>  <int> <dbl> <chr>      <chr>      <chr>          <dbl> <chr> <chr> 
 1 Luke…    172    77 blond      fair       blue            19   male  mascu…
 2 C-3PO    167    75 <NA>       gold       yellow         112   none  mascu…
 3 R2-D2     96    32 <NA>       white, bl… red             33   none  mascu…
 4 Dart…    202   136 none       white      yellow          41.9 male  mascu…
 5 Leia…    150    49 brown      light      brown           19   fema… femin…
 6 Owen…    178   120 brown, gr… light      blue            52   male  mascu…
 7 Beru…    165    75 brown      light      blue            47   fema… femin…
 8 R5-D4     97    32 <NA>       white, red red             NA   none  mascu…
 9 Bigg…    183    84 black      light      brown           24   male  mascu…
10 Obi-…    182    77 auburn, w… fair       blue-gray       57   male  mascu…
# … with 73 more rows, and 5 more variables: homeworld <chr>, species <chr>,
#   films <list>, vehicles <list>, starships <list>
```
…
## Figure 1 code
.panel1-my_bar_fancy_fig1-auto[

```r
starwars %>%
  drop_na(sex) %>%
* mutate(sex = recode_factor(sex,
*                            "hermaphroditic" = "intersex"))
```
]
 
.panel2-my_bar_fancy_fig1-auto[

```
# A tibble: 83 x 14
   name  height  mass hair_color skin_color eye_color birth_year sex   gender
   <chr>  <int> <dbl> <chr>      <chr>      <chr>          <dbl> <fct> <chr> 
 1 Luke…    172    77 blond      fair       blue            19   male  mascu…
 2 C-3PO    167    75 <NA>       gold       yellow         112   none  mascu…
 3 R2-D2     96    32 <NA>       white, bl… red             33   none  mascu…
 4 Dart…    202   136 none       white      yellow          41.9 male  mascu…
 5 Leia…    150    49 brown      light      brown           19   fema… femin…
 6 Owen…    178   120 brown, gr… light      blue            52   male  mascu…
 7 Beru…    165    75 brown      light      blue            47   fema… femin…
 8 R5-D4     97    32 <NA>       white, red red             NA   none  mascu…
 9 Bigg…    183    84 black      light      brown           24   male  mascu…
10 Obi-…    182    77 auburn, w… fair       blue-gray       57   male  mascu…
# … with 73 more rows, and 5 more variables: homeworld <chr>, species <chr>,
#   films <list>, vehicles <list>, starships <list>
```
…
count: false
 
## Basic stacked bar chart for 2 variables
.panel1-my_2var_bar-auto[

```r
*starwars
```
]
 
.panel2-my_2var_bar-auto[

```
# A tibble: 87 x 14
   name  height  mass hair_color skin_color eye_color birth_year sex   gender
   <chr>  <int> <dbl> <chr>      <chr>      <chr>          <dbl> <chr> <chr> 
 1 Luke…    172    77 blond      fair       blue            19   male  mascu…
 2 C-3PO    167    75 <NA>       gold       yellow         112   none  mascu…
 3 R2-D2     96    32 <NA>       white, bl… red             33   none  mascu…
 4 Dart…    202   136 none       white      yellow          41.9 male  mascu…
 5 Leia…    150    49 brown      light      brown           19   fema… femin…
 6 Owen…    178   120 brown, gr… light      blue            52   male  mascu…
 7 Beru…    165    75 brown      light      blue            47   fema… femin…
 8 R5-D4     97    32 <NA>       white, red red             NA   none  mascu…
 9 Bigg…    183    84 black      light      brown           24   male  mascu…
10 Obi-…    182    77 auburn, w… fair       blue-gray       57   male  mascu…
# … with 77 more rows, and 5 more variables: homeworld <chr>, species <chr>,
#   films <list>, vehicles <list>, starships <list>
```
…
## Basic stacked bar chart for 2 variables
.panel1-my_2var_bar-auto[

```r
starwars %>%
* drop_na(sex, gender)
```
]
 
.panel2-my_2var_bar-auto[

```
# A tibble: 83 x 14
   name  height  mass hair_color skin_color eye_color birth_year sex   gender
   <chr>  <int> <dbl> <chr>      <chr>      <chr>          <dbl> <chr> <chr> 
 1 Luke…    172    77 blond      fair       blue            19   male  mascu…
 2 C-3PO    167    75 <NA>       gold       yellow         112   none  mascu…
 3 R2-D2     96    32 <NA>       white, bl… red             33   none  mascu…
 4 Dart…    202   136 none       white      yellow          41.9 male  mascu…
 5 Leia…    150    49 brown      light      brown           19   fema… femin…
 6 Owen…    178   120 brown, gr… light      blue            52   male  mascu…
 7 Beru…    165    75 brown      light      blue            47   fema… femin…
 8 R5-D4     97    32 <NA>       white, red red             NA   none  mascu…
 9 Bigg…    183    84 black      light      brown           24   male  mascu…
10 Obi-…    182    77 auburn, w… fair       blue-gray       57   male  mascu…
# … with 73 more rows, and 5 more variables: homeworld <chr>, species <chr>,
#   films <list>, vehicles <list>, starships <list>
```
…
## Basic stacked bar chart for 2 variables
.panel1-my_2var_bar-auto[

```r
starwars %>%
  drop_na(sex, gender) %>%
* mutate(sex = recode_factor(sex,
*                            "hermaphroditic" = "intersex"))
```
]
 
.panel2-my_2var_bar-auto[

```
# A tibble: 83 x 14
   name  height  mass hair_color skin_color eye_color birth_year sex   gender
   <chr>  <int> <dbl> <chr>      <chr>      <chr>          <dbl> <fct> <chr> 
 1 Luke…    172    77 blond      fair       blue            19   male  mascu…
 2 C-3PO    167    75 <NA>       gold       yellow         112   none  mascu…
 3 R2-D2     96    32 <NA>       white, bl… red             33   none  mascu…
 4 Dart…    202   136 none       white      yellow          41.9 male  mascu…
 5 Leia…    150    49 brown      light      brown           19   fema… femin…
 6 Owen…    178   120 brown, gr… light      blue            52   male  mascu…
 7 Beru…    165    75 brown      light      blue            47   fema… femin…
 8 R5-D4     97    32 <NA>       white, red red             NA   none  mascu…
 9 Bigg…    183    84 black      light      brown           24   male  mascu…
10 Obi-…    182    77 auburn, w… fair       blue-gray       57   male  mascu…
# … with 73 more rows, and 5 more variables: homeworld <chr>, species <chr>,
#   films <list>, vehicles <list>, starships <list>
```
…
count: false
 
## Fancy stacked bar chart for 2 variables
.panel1-my_2var_bar_col-auto[

```r
*starwars
```
]
 
.panel2-my_2var_bar_col-auto[

```
# A tibble: 87 x 14
   name  height  mass hair_color skin_color eye_color birth_year sex   gender
   <chr>  <int> <dbl> <chr>      <chr>      <chr>          <dbl> <chr> <chr> 
 1 Luke…    172    77 blond      fair       blue            19   male  mascu…
 2 C-3PO    167    75 <NA>       gold       yellow         112   none  mascu…
 3 R2-D2     96    32 <NA>       white, bl… red             33   none  mascu…
 4 Dart…    202   136 none       white      yellow          41.9 male  mascu…
 5 Leia…    150    49 brown      light      brown           19   fema… femin…
 6 Owen…    178   120 brown, gr… light      blue            52   male  mascu…
 7 Beru…    165    75 brown      light      blue            47   fema… femin…
 8 R5-D4     97    32 <NA>       white, red red             NA   none  mascu…
 9 Bigg…    183    84 black      light      brown           24   male  mascu…
10 Obi-…    182    77 auburn, w… fair       blue-gray       57   male  mascu…
# … with 77 more rows, and 5 more variables: homeworld <chr>, species <chr>,
#   films <list>, vehicles <list>, starships <list>
```
…
## Fancy stacked bar chart for 2 variables
.panel1-my_2var_bar_col-auto[

```r
starwars %>%
* drop_na(sex, gender)
```
]
 
.panel2-my_2var_bar_col-auto[

```
# A tibble: 83 x 14
   name  height  mass hair_color skin_color eye_color birth_year sex   gender
   <chr>  <int> <dbl> <chr>      <chr>      <chr>          <dbl> <chr> <chr> 
 1 Luke…    172    77 blond      fair       blue            19   male  mascu…
 2 C-3PO    167    75 <NA>       gold       yellow         112   none  mascu…
 3 R2-D2     96    32 <NA>       white, bl… red             33   none  mascu…
 4 Dart…    202   136 none       white      yellow          41.9 male  mascu…
 5 Leia…    150    49 brown      light      brown           19   fema… femin…
 6 Owen…    178   120 brown, gr… light      blue            52   male  mascu…
 7 Beru…    165    75 brown      light      blue            47   fema… femin…
 8 R5-D4     97    32 <NA>       white, red red             NA   none  mascu…
 9 Bigg…    183    84 black      light      brown           24   male  mascu…
10 Obi-…    182    77 auburn, w… fair       blue-gray       57   male  mascu…
# … with 73 more rows, and 5 more variables: homeworld <chr>, species <chr>,
#   films <list>, vehicles <list>, starships <list>
```
…
## Fancy stacked bar chart for 2 variables
.panel1-my_2var_bar_col-auto[

```r
starwars %>%
  drop_na(sex, gender) %>%
* mutate(sex = recode_factor(sex,
*                            "hermaphroditic" = "intersex"))
```
]
 
.panel2-my_2var_bar_col-auto[

```
# A tibble: 83 x 14
   name  height  mass hair_color skin_color eye_color birth_year sex   gender
   <chr>  <int> <dbl> <chr>      <chr>      <chr>          <dbl> <fct> <chr> 
 1 Luke…    172    77 blond      fair       blue            19   male  mascu…
 2 C-3PO    167    75 <NA>       gold       yellow         112   none  mascu…
 3 R2-D2     96    32 <NA>       white, bl… red             33   none  mascu…
 4 Dart…    202   136 none       white      yellow          41.9 male  mascu…
 5 Leia…    150    49 brown      light      brown           19   fema… femin…
 6 Owen…    178   120 brown, gr… light      blue            52   male  mascu…
 7 Beru…    165    75 brown      light      blue            47   fema… femin…
 8 R5-D4     97    32 <NA>       white, red red             NA   none  mascu…
 9 Bigg…    183    84 black      light      brown           24   male  mascu…
10 Obi-…    182    77 auburn, w… fair       blue-gray       57   male  mascu…
# … with 73 more rows, and 5 more variables: homeworld <chr>, species <chr>,
#   films <list>, vehicles <list>, starships <list>
```
…
count: false
 
## Fancy grouped bar chart with color palettes
.panel1-my_2var_bar_group1-auto[

```r
*starwars
```
]
 
.panel2-my_2var_bar_group1-auto[

```
# A tibble: 87 x 14
   name  height  mass hair_color skin_color eye_color birth_year sex   gender
   <chr>  <int> <dbl> <chr>      <chr>      <chr>          <dbl> <chr> <chr> 
 1 Luke…    172    77 blond      fair       blue            19   male  mascu…
 2 C-3PO    167    75 <NA>       gold       yellow         112   none  mascu…
 3 R2-D2     96    32 <NA>       white, bl… red             33   none  mascu…
 4 Dart…    202   136 none       white      yellow          41.9 male  mascu…
 5 Leia…    150    49 brown      light      brown           19   fema… femin…
 6 Owen…    178   120 brown, gr… light      blue            52   male  mascu…
 7 Beru…    165    75 brown      light      blue            47   fema… femin…
 8 R5-D4     97    32 <NA>       white, red red             NA   none  mascu…
 9 Bigg…    183    84 black      light      brown           24   male  mascu…
10 Obi-…    182    77 auburn, w… fair       blue-gray       57   male  mascu…
# … with 77 more rows, and 5 more variables: homeworld <chr>, species <chr>,
#   films <list>, vehicles <list>, starships <list>
```
…
## Fancy grouped bar chart with color palettes
.panel1-my_2var_bar_group1-auto[

```r
starwars %>%
* drop_na(sex, gender)
```
]
 
.panel2-my_2var_bar_group1-auto[

```
# A tibble: 83 x 14
   name  height  mass hair_color skin_color eye_color birth_year sex   gender
   <chr>  <int> <dbl> <chr>      <chr>      <chr>          <dbl> <chr> <chr> 
 1 Luke…    172    77 blond      fair       blue            19   male  mascu…
 2 C-3PO    167    75 <NA>       gold       yellow         112   none  mascu…
 3 R2-D2     96    32 <NA>       white, bl… red             33   none  mascu…
 4 Dart…    202   136 none       white      yellow          41.9 male  mascu…
 5 Leia…    150    49 brown      light      brown           19   fema… femin…
 6 Owen…    178   120 brown, gr… light      blue            52   male  mascu…
 7 Beru…    165    75 brown      light      blue            47   fema… femin…
 8 R5-D4     97    32 <NA>       white, red red             NA   none  mascu…
 9 Bigg…    183    84 black      light      brown           24   male  mascu…
10 Obi-…    182    77 auburn, w… fair       blue-gray       57   male  mascu…
# … with 73 more rows, and 5 more variables: homeworld <chr>, species <chr>,
#   films <list>, vehicles <list>, starships <list>
```
…
